{
	"info": {
		"_postman_id": "6d02ab18-7055-40f9-89f4-6f060e52a0a7",
		"name": "finlink-jobs",
		"schema": "https://schema.getpostman.com/json/collection/v2.1.0/collection.json"
	},
	"item": [
		{
			"name": "Post",
			"request": {
				"method": "POST",
				"header": [],
				"body": {
					"mode": "raw",
					"raw": "{\r\n  \"uuid\": \"bdb2d4a4-c2d1-470f-bc1a-37e057b0f265\",\r\n  \"jobTitle\": \"jobTitle123\",\r\n  \"description\": \"description123\",\r\n  \"location\": \"Hamburg\"\r\n}\r\n",
					"options": {
						"raw": {
							"language": "json"
						}
					}
				},
				"url": {
					"raw": "http://localhost:3333/api/jobs",
					"protocol": "http",
					"host": [
						"localhost"
					],
					"port": "3333",
					"path": [
						"api",
						"jobs"
					]
				}
			},
			"response": []
		},
		{
			"name": "Put",
			"request": {
				"method": "PUT",
				"header": [],
				"body": {
					"mode": "raw",
					"raw": "{\r\n  \"jobTitle\": \"jobTitle1\",\r\n  \"description\": \"description2-2\",\r\n  \"location\": \"Hamburg\"\r\n}\r\n",
					"options": {
						"raw": {
							"language": "json"
						}
					}
				},
				"url": {
					"raw": "http://localhost:3333/api/jobs/bdb2d4a4-c2d1-470f-bc1a-37e057b0f265",
					"protocol": "http",
					"host": [
						"localhost"
					],
					"port": "3333",
					"path": [
						"api",
						"jobs",
						"6bcdd090-d4c4-4911-b6a8-7d1bb801f888"
					]
				}
			},
			"response": []
		},
		{
			"name": "GetAll",
			"request": {
				"method": "GET",
				"header": [],
				"url": {
					"raw": "http://localhost:3333/api/jobs?limit=1&page=0",
					"protocol": "http",
					"host": [
						"localhost"
					],
					"port": "3333",
					"path": [
						"api",
						"jobs"
					],
					"query": [
						{
							"key": "limit",
							"value": "1"
						},
						{
							"key": "page",
							"value": "0"
						}
					]
				}
			},
			"response": []
		},
		{
			"name": "Get",
			"request": {
				"method": "GET",
				"header": [],
				"url": {
					"raw": "http://localhost:3333/api/jobs/bdb7d4a4-c5d1-470f-bc1a-37e057b0f265",
					"protocol": "http",
					"host": [
						"localhost"
					],
					"port": "3333",
					"path": [
						"api",
						"jobs",
						"bdb7d4a4-c5d1-470f-bc1a-37e057b0f265"
					]
				}
			},
			"response": []
		}
	]
}